%YAML 1.1
%TAG !u! tag:unity3d.com,2011:
--- !u!162 &1
EditorUserSettings:
  m_ObjectHideFlags: 0
  serializedVersion: 4
  m_ConfigSettings:
    RecentlyUsedSceneGuid-0:
      value: 5208055f03065a59095b5c711477594540154f2e2a2922697d7f1f36e7e33239
      flags: 0
    RecentlyUsedSceneGuid-1:
      value: 5a05510354570f080f575f7b44770842474e1d72282b74357d704d35e4b0623a
      flags: 0
    RecentlyUsedSceneGuid-2:
      value: 0757035f5c035102090f5974167708144e154a2e782a24697e784e31e7e4656e
      flags: 0
    RecentlyUsedSceneGuid-3:
      value: 01010551000d5d0b0858547614770947174f1d7b7a2e7664797a1937b1b2376b
      flags: 0
    RecentlyUsedSceneGuid-4:
      value: 5009075154035a0f5b0c5d7113775d1246154d732e7820352b7b1b6ae6e1616f
      flags: 0
    RecentlyUsedSceneGuid-5:
      value: 510301565307500c5e590f7545770a41154f1a29757124337c2c4a35b7b3643a
      flags: 0
    RecentlyUsedSceneGuid-6:
      value: 0700570004535f0e090b5d2046775e14414f1c7e7c7923347e7e4560e1b1623d
      flags: 0
    RecentlyUsedSceneGuid-7:
      value: 55535102010d5d0e5a0b597241775c44404e497d7d2e72327d7a4b66b6e2626d
      flags: 0
    RecentlyUsedScenePath-0:
      value: 22424703114646680e0b0227036c7c1c17040b7a7d66333e243d04
      flags: 0
    RecentlyUsedScenePath-1:
      value: 224247031146466f5c40192c193746
      flags: 0
    RecentlyUsedScenePath-2:
      value: 22424703114646680e0b0227036c7c1c17040b7a7f66333e243d04
      flags: 0
    RecentlyUsedScenePath-3:
      value: 22424703114646680e0b0227036c7c1c17040b7a7e66333e243d04
      flags: 0
    RecentlyUsedScenePath-4:
      value: 22424703114646680c031c2e15306d1505180d382f2d357f1e2a183de7f37b68afca37e0e9742a323016f6
      flags: 0
    RecentlyUsedScenePath-5:
      value: 22424703114646680e0b0227036c6f0219100a2f3f3b68252320092a
      flags: 0
    RecentlyUsedScenePath-6:
      value: 22424703114646680e0b0227036c7c1c17040b7a7866333e243d04
      flags: 0
    vcSharedLogLevel:
      value: 0d5e400f0650
      flags: 0
  m_VCAutomaticAdd: 1
  m_VCDebugCom: 0
  m_VCDebugCmd: 0
  m_VCDebugOut: 0
  m_SemanticMergeMode: 2
  m_DesiredImportWorkerCount: 2
  m_StandbyImportWorkerCount: 2
  m_IdleImportWorkerShutdownDelay: 60000
  m_VCShowFailedCheckout: 1
  m_VCOverwriteFailedCheckoutAssets: 1
  m_VCProjectOverlayIcons: 1
  m_VCHierarchyOverlayIcons: 1
  m_VCOtherOverlayIcons: 1
  m_VCAllowAsyncUpdate: 1
  m_ArtifactGarbageCollection: 1
